[
  "recent-files-obsidian",
  "obsidian-relative-line-numbers",
  "obsidian-annotator",
  "obsidian-charts",
  "calendar",
  "obsidian-dictionary-plugin",
  "obsidian-icon-folder",
  "table-editor-obsidian",
  "obsidian-enhancing-export",
  "file-explorer-note-count",
  "obsidian-things3-sync",
  "tag-wrangler",
  "dataview",
  "templater-obsidian",
  "obsidian-vimrc-support"
]